id;name;image;short_description
1;panel action-items;Estates Intelligent;backing
2;sensor;copying Wells;Dollar up EXE
3;Oklahoma open De-engineered;National;multi-byte
4;Plastic;Rustic;Assistant Accounts
5;database Developer Fish;deposit;Group
6;deliverables SDR;program;white Unbranded
7;Account;JSON;Dobra
8;indexing;Operations Metal;SDD Awesome monitor
9;Guiana;Liechtenstein;Account channels
10;action-items deposit;clicks-and-mortar Function-based synthesize;Keyboard Borders
