id;name
1;generating
2;capability
3;infrastructure Cambridgeshire motivating
4;Granite
5;Nauru PNG Ohio
6;Computer program
7;Account
8;Tuna Moroccan Wooden
9;connect quantifying
10;Sausages salmon black
