id;short_description
1;attitude-oriented Australian
2;Manor Intelligent Account
3;engage index Fresh
4;Buckinghamshire Handcrafted Michigan
5;deposit morph alarm
6;1080p Table Montana
7;Steel Buckinghamshire
8;extensible Utah overriding
9;Strategist programming
10;Rustic Global Mill
