{
  "changelogDate": "20220716171402",
  "dto": "mapstruct",
  "fields": [
    {
      "fieldName": "status",
      "fieldType": "Integer",
      "fieldValidateRules": ["required", "min", "max"],
      "fieldValidateRulesMax": "1",
      "fieldValidateRulesMin": "0"
    }
  ],
  "jpaMetamodelFiltering": false,
  "name": "NotificationReceiver",
  "pagination": "no",
  "readOnly": false,
  "relationships": [],
  "service": "serviceImpl"
}
