{
  "changelogDate": "20220716095519",
  "dto": "mapstruct",
  "fields": [
    {
      "fieldName": "experience",
      "fieldType": "String"
    },
    {
      "fieldName": "short_description",
      "fieldType": "String"
    }
  ],
  "jpaMetamodelFiltering": false,
  "name": "PersonalTrainer",
  "pagination": "pagination",
  "readOnly": false,
  "relationships": [],
  "service": "serviceImpl"
}
