{
  "changelogDate": "20220716095133",
  "dto": "mapstruct",
  "entityTableName": "jhi_profile",
  "fields": [
    {
      "fieldName": "fullname",
      "fieldType": "String",
      "fieldValidateRules": ["required", "minlength", "maxlength"],
      "fieldValidateRulesMaxlength": "255",
      "fieldValidateRulesMinlength": "1"
    },
    {
      "fieldName": "address",
      "fieldType": "String",
      "fieldValidateRules": ["minlength", "maxlength"],
      "fieldValidateRulesMaxlength": "255",
      "fieldValidateRulesMinlength": "1"
    },
    {
      "fieldName": "phone",
      "fieldType": "String",
      "fieldValidateRules": ["required", "unique", "minlength", "maxlength"],
      "fieldValidateRulesMaxlength": "50",
      "fieldValidateRulesMinlength": "1"
    },
    {
      "fieldName": "objective",
      "fieldType": "String",
      "fieldValidateRules": []
    },
    {
      "fieldName": "birthday",
      "fieldType": "LocalDate"
    },
    {
      "fieldName": "email",
      "fieldType": "String",
      "fieldValidateRules": ["required", "unique", "minlength", "maxlength"],
      "fieldValidateRulesMaxlength": "50",
      "fieldValidateRulesMinlength": "1"
    },
    {
      "fieldName": "gender",
      "fieldType": "Integer",
      "fieldValidateRules": ["min", "max"],
      "fieldValidateRulesMax": "1",
      "fieldValidateRulesMin": "0"
    },
    {
      "fieldName": "avatar",
      "fieldType": "String"
    },
    {
      "fieldName": "is_active",
      "fieldType": "Integer",
      "fieldValidateRules": ["min", "max"],
      "fieldValidateRulesMax": "1",
      "fieldValidateRulesMin": "0"
    },
    {
      "fieldName": "modified_by",
      "fieldType": "Long",
      "fieldValidateRules": ["required"]
    },
    {
      "fieldName": "modified_date",
      "fieldType": "LocalDate",
      "fieldValidateRules": ["required"]
    }
  ],
  "jpaMetamodelFiltering": false,
  "name": "Profile",
  "pagination": "pagination",
  "readOnly": false,
  "relationships": [],
  "service": "serviceImpl"
}
