{
  "changelogDate": "20220817085212",
  "dto": "mapstruct",
  "fields": [
    {
      "fieldName": "name",
      "fieldType": "String"
    }
  ],
  "jpaMetamodelFiltering": false,
  "name": "SlotTime",
  "pagination": "pagination",
  "readOnly": false,
  "relationships": [],
  "service": "serviceImpl"
}
