id;calendar_date;title;content;calendar_time
1;2022-07-16;workforce Gorgeous;application Liaison;2022-07-15
2;2022-07-16;Handmade;Rustic;2022-07-16
3;2022-07-16;Investment composite azure;system Metal;2022-07-16
4;2022-07-16;France;Account high-level Dollar;2022-07-16
5;2022-07-15;revolutionize Jamaican;Intelligent deposit;2022-07-16
6;2022-07-16;Fish;payment;2022-07-15
7;2022-07-15;envisioneer;back-end Avon back-end;2022-07-15
8;2022-07-16;bypassing;eco-centric hacking;2022-07-16
9;2022-07-16;calculating Michigan;Distributed;2022-07-16
10;2022-07-15;Chair Avon capability;parsing mission-critical Future-proofed;2022-07-16
