id;name;image;short_description;created_by;created_date;modify_by;modify_date
1;Table;open-source;Integration;82897;2022-08-21;85439;2022-08-20
2;HTTP Checking;Internal XML Chips;enterprise Steel;84884;2022-08-20;16401;2022-08-20
3;Salad killer;Games;Washington;94420;2022-08-20;55787;2022-08-21
4;Designer array;Verde;Loan Music;61498;2022-08-20;21816;2022-08-20
5;Account Front-line plug-and-play;Specialist;Rubber;66292;2022-08-20;88498;2022-08-20
6;Communications;connecting systems;networks;52182;2022-08-20;1281;2022-08-20
7;Borders invoice Sleek;Central;Saint Money Fresh;27188;2022-08-20;34646;2022-08-20
8;blue Chief;Nebraska;Tasty Shirt Central;52438;2022-08-20;25039;2022-08-20
9;Cambridgeshire Armenian impactful;Reactive Arizona Chicken;Account auxiliary;49854;2022-08-20;21046;2022-08-21
10;synergy Granite;innovative;bypassing Chicken;44282;2022-08-20;79972;2022-08-20
