id;jhi_comment;rate_star;created_at
1;alliance heuristic;58210;2022-08-17
2;Sleek red ADP;90680;2022-08-18
3;circuit Orchestrator overriding;60428;2022-08-18
4;Accountability yellow Tasty;16336;2022-08-17
5;Squares;59511;2022-08-18
6;Handcrafted clicks-and-mortar;34830;2022-08-18
7;sticky one-to-one SAS;18601;2022-08-17
8;magenta Solutions;44374;2022-08-18
9;feed;90238;2022-08-17
10;Granite;84323;2022-08-17
