id;jhi_type;expired_date;registered_date
1;International;2022-07-16;2022-07-15
2;Orchestrator;2022-07-16;2022-07-15
3;Pizza;2022-07-15;2022-07-15
4;engineer Michigan;2022-07-16;2022-07-16
5;transmit National Dynamic;2022-07-16;2022-07-15
6;programming;2022-07-16;2022-07-16
7;Buckinghamshire;2022-07-15;2022-07-16
8;seize firewall;2022-07-16;2022-07-16
9;Associate;2022-07-16;2022-07-16
10;parse Wooden paradigms;2022-07-16;2022-07-16
