id;note;created_by;created_date;modified_by;modified_date
1;Arkansas networks Fresh;33668;2022-07-16;80105;2022-07-15
2;Handcrafted;67220;2022-07-16;77729;2022-07-16
3;white;6917;2022-07-16;83014;2022-07-16
4;Cedi;96997;2022-07-16;3102;2022-07-16
5;repurpose Bedfordshire matrix;91245;2022-07-16;51280;2022-07-16
6;Iowa;77279;2022-07-16;89362;2022-07-16
7;HDD Refined;71549;2022-07-16;20594;2022-07-16
8;Functionality Health infrastructures;72860;2022-07-16;91618;2022-07-16
9;yellow Renminbi District;13366;2022-07-16;24705;2022-07-16
10;GB;48380;2022-07-16;95740;2022-07-16
