{
  "changelogDate": "20220716095920",
  "dto": "mapstruct",
  "fields": [
    {
      "fieldName": "title",
      "fieldType": "String",
      "fieldValidateRules": ["required"]
    },
    {
      "fieldName": "short_description",
      "fieldType": "String"
    },
    {
      "fieldName": "content",
      "fieldType": "String",
      "fieldValidateRules": ["required"]
    },
    {
      "fieldName": "created_date",
      "fieldType": "LocalDate",
      "fieldValidateRules": ["required"]
    },
    {
      "fieldName": "image",
      "fieldType": "String",
      "fieldValidateRules": ["required"]
    },
    {
      "fieldName": "is_display",
      "fieldType": "Integer",
      "fieldValidateRules": ["min", "max"],
      "fieldValidateRulesMax": "1",
      "fieldValidateRulesMin": "0"
    }
  ],
  "jpaMetamodelFiltering": false,
  "name": "News",
  "pagination": "pagination",
  "readOnly": false,
  "relationships": [],
  "service": "serviceImpl"
}
